<?xml version="1.0" encoding="utf-8"?>


<!-- The icon can be used freely in both personal and commercial projects with no attribution required, but always appreciated. 
You may NOT sub-license, resell, rent, redistribute or otherwise transfer the icon without express written permission from iconmonstr.com -->


<!DOCTYPE svg PUBLIC "-//W3C//DTD SVG 1.1//EN" "http://www.w3.org/Graphics/SVG/1.1/DTD/svg11.dtd">

<svg version="1.1" xmlns="http://www.w3.org/2000/svg" xmlns:xlink="http://www.w3.org/1999/xlink" x="0px" y="0px"

	 width="512px" height="512px" viewBox="0 0 512 512" enable-background="new 0 0 512 512" xml:space="preserve" fill="#6f7478">

<path id="arrow-26-icon" d="M213.189,460.86l-92.262-91.824l112.498-113.037L120.927,142.96l92.262-91.82l203.883,204.859

	L213.189,460.86z M184.566,368.884l28.471,28.336l140.547-141.221L213.037,114.778l-28.471,28.334l112.348,112.887L184.566,368.884z

	"/>

</svg>

